order_id,email,firstname,lastname,prefix,middlename,suffix,taxvat,created_at,updated_at,invoice_created_at,shipment_created_at,creditmemo_created_at,tax_amount,base_tax_amount,discount_amount,base_discount_amount,shipping_tax_amount,base_shipping_tax_amount,base_to_global_rate,base_to_order_rate,store_to_base_rate,store_to_order_rate,subtotal_incl_tax,base_subtotal_incl_tax,coupon_code,shipping_incl_tax,base_shipping_incl_tax,shipping_method,shipping_amount,subtotal,base_subtotal,grand_total,base_grand_total,base_shipping_amount,adjustment_positive,adjustment_negative,refunded_shipping_amount,base_refunded_shipping_amount,refunded_subtotal,base_refunded_subtotal,refunded_tax_amount,base_refunded_tax_amount,refunded_discount_amount,base_refunded_discount_amount,store_id,order_status,order_state,hold_before_state,hold_before_status,store_currency_code,base_currency_code,order_currency_code,total_paid,base_total_paid,is_virtual,total_qty_ordered,remote_ip,total_refunded,base_total_refunded,total_canceled,total_invoiced,customer_id,billing_prefix,billing_firstname,billing_middlename,billing_lastname,billing_suffix,billing_street_full,billing_city,billing_region,billing_country,billing_postcode,billing_telephone,billing_company,billing_fax,customer_id,shipping_prefix,shipping_firstname,shipping_middlename,shipping_lastname,shipping_suffix,shipping_street_full,shipping_city,shipping_region,shipping_country,shipping_postcode,shipping_telephone,shipping_company,shipping_fax,payment_method,product_sku,product_name,qty_ordered,qty_invoiced,qty_shipped,qty_refunded,qty_canceled,product_type,original_price,base_original_price,row_total,base_row_total,row_weight,price_incl_tax,base_price_incl_tax,product_tax_amount,product_base_tax_amount,product_tax_percent,product_discount,product_base_discount,product_discount_percent,is_child,product_option
000080700,claire.perkins@monash.edu,"Claire Perkins",cper7,,,,,"2017-01-18 23:55:20","2017-01-18 23:55:27","2017-01-18 23:55:27",,,2.2700,2.2700,0.0000,0.0000,0.0000,0.0000,1.0000,1.0000,1.0000,1.0000,24.9500,24.9500,,0.0000,0.0000,AU_StandardDelivery,0.0000,22.6800,22.6800,24.9500,24.9500,0.0000,0,0,0,0,0,0,0,0,0,0,0,processing,processing,,,AUD,AUD,AUD,24.9500,24.9500,0,1.0000,,,,,24.9500,26318,,"Claire Perkins",,.,,"12/11 Smith Street
Kensington",Melbourne,Victoria,AU,3031,0399031239,,,26318,,"Claire Perkins",,.,,"12/11 Smith Street
Kensington",Melbourne,Victoria,AU,3031,0399031239,,,ebaypayment,king_4242,"Sport Mixer 590ml - Black / Pink Clip",1,1,0,0,0,simple,24.9500,24.9500,22.6800,22.6800,0.2000,24.9500,24.9500,2.2700,2.2700,10.0000,0.0000,0.0000,0.0000,no,"a:1:{s:15:""info_buyRequest"";a:1:{s:3:""qty"";i:1;}}"
